<svg width="16" height="10" viewBox="0 0 16 10" fill="none" xmlns="http://www.w3.org/2000/svg">
<path d="M0.5 10H15.5V8.33333H0.5V10ZM0.5 5.83333H15.5V4.16667H0.5V5.83333ZM0.5 0V1.66667H15.5V0H0.5Z" fill="black" fill-opacity="0.54"/>
</svg>
