<svg width="33" height="16" viewBox="0 0 33 16" fill="none" xmlns="http://www.w3.org/2000/svg">
<path d="M32.7071 8.70711C33.0976 8.31658 33.0976 7.68342 32.7071 7.29289L26.3431 0.928932C25.9526 0.538408 25.3195 0.538408 24.9289 0.928932C24.5384 1.31946 24.5384 1.95262 24.9289 2.34315L30.5858 8L24.9289 13.6569C24.5384 14.0474 24.5384 14.6805 24.9289 15.0711C25.3195 15.4616 25.9526 15.4616 26.3431 15.0711L32.7071 8.70711ZM0 9H32V7H0L0 9Z" fill="url(#paint0_linear_474_14691)"/>
<defs>
<linearGradient id="paint0_linear_474_14691" x1="38.1818" y1="7.99994" x2="12.0103" y2="7.4811" gradientUnits="userSpaceOnUse">
<stop stop-color="#00BAC6"/>
<stop offset="1" stop-color="white"/>
</linearGradient>
</defs>
</svg>
